%YAML 1.1
%TAG !u! tag:unity3d.com,2011:
--- !u!1 &493594439443691573
GameObject:
  m_ObjectHideFlags: 0
  m_CorrespondingSourceObject: {fileID: 0}
  m_PrefabInstance: {fileID: 0}
  m_PrefabAsset: {fileID: 0}
  serializedVersion: 6
  m_Component:
  - component: {fileID: 2262508965896995482}
  m_Layer: 0
  m_Name: muzzlePrefab
  m_TagString: Untagged
  m_Icon: {fileID: 0}
  m_NavMeshLayer: 0
  m_StaticEditorFlags: 0
  m_IsActive: 1
--- !u!4 &2262508965896995482
Transform:
  m_ObjectHideFlags: 0
  m_CorrespondingSourceObject: {fileID: 0}
  m_PrefabInstance: {fileID: 0}
  m_PrefabAsset: {fileID: 0}
  m_GameObject: {fileID: 493594439443691573}
  m_LocalRotation: {x: 0, y: 0, z: 0, w: 1}
  m_LocalPosition: {x: 0, y: 0, z: 0}
  m_LocalScale: {x: 1, y: 1, z: 1}
  m_Children:
  - {fileID: 7006562864542141059}
  m_Father: {fileID: 0}
  m_RootOrder: 0
  m_LocalEulerAnglesHint: {x: 0, y: 0, z: 0}
--- !u!1001 &7344816273551129503
PrefabInstance:
  m_ObjectHideFlags: 0
  serializedVersion: 2
  m_Modification:
    m_TransformParent: {fileID: 2262508965896995482}
    m_Modifications:
    - target: {fileID: 347420050350649631, guid: 6aedd08a1d4989f4382ea7598a9774ac,
        type: 3}
      propertyPath: m_Name
      value: muzzlePref
      objectReference: {fileID: 0}
    - target: {fileID: 347420050350649628, guid: 6aedd08a1d4989f4382ea7598a9774ac,
        type: 3}
      propertyPath: m_LocalPosition.x
      value: 0.313
      objectReference: {fileID: 0}
    - target: {fileID: 347420050350649628, guid: 6aedd08a1d4989f4382ea7598a9774ac,
        type: 3}
      propertyPath: m_LocalPosition.y
      value: -0.159
      objectReference: {fileID: 0}
    - target: {fileID: 347420050350649628, guid: 6aedd08a1d4989f4382ea7598a9774ac,
        type: 3}
      propertyPath: m_LocalPosition.z
      value: 0
      objectReference: {fileID: 0}
    - target: {fileID: 347420050350649628, guid: 6aedd08a1d4989f4382ea7598a9774ac,
        type: 3}
      propertyPath: m_LocalRotation.x
      value: -0
      objectReference: {fileID: 0}
    - target: {fileID: 347420050350649628, guid: 6aedd08a1d4989f4382ea7598a9774ac,
        type: 3}
      propertyPath: m_LocalRotation.y
      value: -0
      objectReference: {fileID: 0}
    - target: {fileID: 347420050350649628, guid: 6aedd08a1d4989f4382ea7598a9774ac,
        type: 3}
      propertyPath: m_LocalRotation.z
      value: 0.7071068
      objectReference: {fileID: 0}
    - target: {fileID: 347420050350649628, guid: 6aedd08a1d4989f4382ea7598a9774ac,
        type: 3}
      propertyPath: m_LocalRotation.w
      value: 0.7071068
      objectReference: {fileID: 0}
    - target: {fileID: 347420050350649628, guid: 6aedd08a1d4989f4382ea7598a9774ac,
        type: 3}
      propertyPath: m_RootOrder
      value: 0
      objectReference: {fileID: 0}
    - target: {fileID: 347420050350649628, guid: 6aedd08a1d4989f4382ea7598a9774ac,
        type: 3}
      propertyPath: m_LocalEulerAnglesHint.x
      value: 0
      objectReference: {fileID: 0}
    - target: {fileID: 347420050350649628, guid: 6aedd08a1d4989f4382ea7598a9774ac,
        type: 3}
      propertyPath: m_LocalEulerAnglesHint.y
      value: 0
      objectReference: {fileID: 0}
    - target: {fileID: 347420050350649628, guid: 6aedd08a1d4989f4382ea7598a9774ac,
        type: 3}
      propertyPath: m_LocalEulerAnglesHint.z
      value: 90
      objectReference: {fileID: 0}
    m_RemovedComponents: []
  m_SourcePrefab: {fileID: 100100000, guid: 6aedd08a1d4989f4382ea7598a9774ac, type: 3}
--- !u!4 &7006562864542141059 stripped
Transform:
  m_CorrespondingSourceObject: {fileID: 347420050350649628, guid: 6aedd08a1d4989f4382ea7598a9774ac,
    type: 3}
  m_PrefabInstance: {fileID: 7344816273551129503}
  m_PrefabAsset: {fileID: 0}
