%YAML 1.1
%TAG !u! tag:unity3d.com,2011:
--- !u!74 &7400000
AnimationClip:
  m_ObjectHideFlags: 0
  m_CorrespondingSourceObject: {fileID: 0}
  m_PrefabInstance: {fileID: 0}
  m_PrefabAsset: {fileID: 0}
  m_Name: soldierRun
  serializedVersion: 6
  m_Legacy: 0
  m_Compressed: 0
  m_UseHighQualityCurve: 1
  m_RotationCurves: []
  m_CompressedRotationCurves: []
  m_EulerCurves: []
  m_PositionCurves: []
  m_ScaleCurves: []
  m_FloatCurves: []
  m_PPtrCurves:
  - curve:
    - time: 0
      value: {fileID: 21300000, guid: 8a4c2130e2f61db49890fc3429772c74, type: 3}
    - time: 0.083333336
      value: {fileID: 21300000, guid: 11160055bb5cbda409599adb76eb1b2c, type: 3}
    - time: 0.16666667
      value: {fileID: 21300000, guid: e5b89be79e2c3a24486024ebfa5caf41, type: 3}
    - time: 0.25
      value: {fileID: 21300000, guid: f61446311b526884a982c3081004b7b8, type: 3}
    - time: 0.33333334
      value: {fileID: 21300000, guid: 7b4424577a0069742b278ff3ba8ec30e, type: 3}
    - time: 0.41666666
      value: {fileID: 21300000, guid: e873634d6874c924f97f22f9f099aca0, type: 3}
    - time: 0.5
      value: {fileID: 21300000, guid: 3df8fdb22e5efe2438eea219931fdc06, type: 3}
    - time: 0.5833333
      value: {fileID: 21300000, guid: 8fc1df6d64f207b488a9b0c69e85c738, type: 3}
    - time: 0.6666667
      value: {fileID: 21300000, guid: 7d9e277e2e923f140a1b9c52c7ca1cb0, type: 3}
    - time: 0.75
      value: {fileID: 21300000, guid: 9658c42da9c74c940aeff61cecafc718, type: 3}
    attribute: m_Sprite
    path: 
    classID: 212
    script: {fileID: 0}
  m_SampleRate: 12
  m_WrapMode: 0
  m_Bounds:
    m_Center: {x: 0, y: 0, z: 0}
    m_Extent: {x: 0, y: 0, z: 0}
  m_ClipBindingConstant:
    genericBindings:
    - serializedVersion: 2
      path: 0
      attribute: 0
      script: {fileID: 0}
      typeID: 212
      customType: 23
      isPPtrCurve: 1
    pptrCurveMapping:
    - {fileID: 21300000, guid: 8a4c2130e2f61db49890fc3429772c74, type: 3}
    - {fileID: 21300000, guid: 11160055bb5cbda409599adb76eb1b2c, type: 3}
    - {fileID: 21300000, guid: e5b89be79e2c3a24486024ebfa5caf41, type: 3}
    - {fileID: 21300000, guid: f61446311b526884a982c3081004b7b8, type: 3}
    - {fileID: 21300000, guid: 7b4424577a0069742b278ff3ba8ec30e, type: 3}
    - {fileID: 21300000, guid: e873634d6874c924f97f22f9f099aca0, type: 3}
    - {fileID: 21300000, guid: 3df8fdb22e5efe2438eea219931fdc06, type: 3}
    - {fileID: 21300000, guid: 8fc1df6d64f207b488a9b0c69e85c738, type: 3}
    - {fileID: 21300000, guid: 7d9e277e2e923f140a1b9c52c7ca1cb0, type: 3}
    - {fileID: 21300000, guid: 9658c42da9c74c940aeff61cecafc718, type: 3}
  m_AnimationClipSettings:
    serializedVersion: 2
    m_AdditiveReferencePoseClip: {fileID: 0}
    m_AdditiveReferencePoseTime: 0
    m_StartTime: 0
    m_StopTime: 0.8333333
    m_OrientationOffsetY: 0
    m_Level: 0
    m_CycleOffset: 0
    m_HasAdditiveReferencePose: 0
    m_LoopTime: 1
    m_LoopBlend: 0
    m_LoopBlendOrientation: 0
    m_LoopBlendPositionY: 0
    m_LoopBlendPositionXZ: 0
    m_KeepOriginalOrientation: 0
    m_KeepOriginalPositionY: 1
    m_KeepOriginalPositionXZ: 0
    m_HeightFromFeet: 0
    m_Mirror: 0
  m_EditorCurves: []
  m_EulerEditorCurves: []
  m_HasGenericRootTransform: 0
  m_HasMotionFloatCurves: 0
  m_Events: []
